[
  {
    "outputFileName": "wwwroot/css/site.min.css",
    "inputFiles": [
      "wwwroot/css/site.css"
    ]
  },
  {
    "outputFileName": "wwwroot/lib/vendor.min.css",
    "inputFiles": [
      "wwwroot/lib/bootstrap/css/bootstrap.css",
      "wwwroot/lib/bootstrap4-toggle/css/bootstrap4-toggle.min.css",
      "wwwroot/lib/dropzone/dropzone.css"
    ]
  },
  {
    "outputFileName": "wwwroot/lib/vendor.min.js",
    "inputFiles": [
      "wwwroot/lib/jquery/jquery.js",
      "wwwroot/lib/bootstrap/js/bootstrap.js",
      "wwwroot/lib/bootstrap4-toggle/js/bootstrap4-toggle.min.js",
      "wwwroot/lib/dropzone/dropzone.js",
      "wwwroot/lib/jszip/jszip.js",
      "wwwroot/lib/FileSaver.js/FileSaver.js",
      "wwwroot/lib/sisyphus.js/sisyphus.js"
    ],
    "sourceMap": true
  }
]